Bayesian Analysis of Aviation Accidents
…
# Summarize all coefficients
posterior_samples %>%
  select(all_of(coef_names)) %>%
  pivot_longer(everything(), names_to = "parameter", values_to = "value") %>%
  group_by(parameter) %>%
  summarise(
    mean = mean(value),
    sd = sd(value),
    q025 = quantile(value, 0.025),
    q975 = quantile(value, 0.975),
    .groups = "drop"
  ) %>%
  arrange(mean)

# A tibble: 80 × 5
   parameter                                       mean    sd   q025    q975
   <chr>                                          <dbl> <dbl>  <dbl>   <dbl>
 1 b_aircraft_manufacturerMil:year_scaled        -1.67  0.280 -2.24  -1.13  
 2 b_aircraft_manufacturerFokker:year_scaled     -1.49  0.107 -1.71  -1.28  
 3 b_aircraft_manufacturerFairchild:year_scaled  -1.36  0.462 -2.23  -0.424 
 4 b_aircraft_manufacturerMi                     -0.843 0.336 -1.50  -0.194 
 5 b_aircraft_manufacturerBritishAerospace       -0.747 0.426 -1.59   0.0590
 6 b_aircraft_manufacturerSwearingen:year_scaled -0.738 0.419 -1.59   0.0681
 7 b_aircraft_manufacturerCessna:year_scaled     -0.737 0.472 -1.69   0.200 
 8 b_aircraft_manufacturerConvair:year_scaled    -0.647 0.261 -1.16  -0.145 
 9 b_aircraft_manufacturerEmbraer:year_scaled    -0.433 0.255 -0.936  0.0596
10 b_aircraft_manufacturerDouglas:year_scaled    -0.367 0.162 -0.696 -0.0543
# ℹ 70 more rows
…
print(manuf_intercepts)

# A tibble: 40 × 4
   manufacturer    mean_fatality_rate  q025  q975
   <chr>                        <dbl> <dbl> <dbl>
 1 Mil                          0.986 0.975 0.994
 2 Fairchild                    0.958 0.927 0.977
 3 VickersViscount              0.915 0.852 0.957
 4 Swearingen                   0.902 0.783 0.971
 5 Fokker                       0.877 0.853 0.899
 6 Embraer110P1                 0.868 0.740 0.949
 7 Bell                         0.868 0.758 0.939
 8 Ilyushin                     0.862 0.837 0.884
 9 Beechcraft                   0.855 0.740 0.936
10 DeHavilland                  0.848 0.761 0.913
# ℹ 30 more rows
…
